<?xml version="1.0" encoding="UTF-8"?>
<CustomTab xmlns="http://soap.sforce.com/2006/04/metadata">
    <description>Visit our community page with actual news, help and faq - or submit a case to our support.</description>
    <frameHeight>740</frameHeight>
    <hasSidebar>false</hasSidebar>
    <icon>SF42_intern/SF42_Icon.jpg</icon>
    <label>Community</label>
    <mobileReady>false</mobileReady>
    <motif>Custom293: TV Widescreen</motif>
    <url>http://community.salesfactory42.com/index.php?comp={!User.CompanyName}&amp;mail={!User.Email}&amp;lname={!User.LastName}&amp;fname={!User.FirstName}&amp;orgId={!Organization.Id}</url>
    <urlEncodingKey>UTF-8</urlEncodingKey>
</CustomTab>
