<?xml version="1.0" encoding="UTF-8"?>
<CustomTab xmlns="http://soap.sforce.com/2006/04/metadata">
    <customObject>true</customObject>
    <description>Add Accounts to Groups like &quot;Big Business&quot;, &quot;Automotive&quot;. This object can be used as base to add Processes that build on Groups like Special Discounts, Summary, etc.</description>
    <icon>SF42_quote_fx/Icon_Accountgroup.png</icon>
    <mobileReady>false</mobileReady>
    <motif>Custom108: TV Widescreen</motif>
</CustomTab>
